{
  "sprite": {
    "Menu_Click": [
      0,
      19.909297052154194
    ],
    "Menu_Off": [
      119.9092970521542,
      157.0068027210884
    ],
    "Menu_On": [
      376.9160997732426,
      135.41950113378687
    ],
    "Smart1": [
      612.3356009070294,
      1267.437641723356
    ],
    "SpinButton": [
      1979.7732426303853,
      254.51247165532865
    ],
    "MaxBet": [
      2334.285714285714,
      98.45804988662144
    ],
    "Small_Credit_Rollup": [
      2532.7437641723354,
      250.56689342403615
    ],
    "new_ReelStopGallop": [
      2883.310657596372,
      272.3809523809524
    ],
    "ReelStop3_v3": [
      3255.6916099773243,
      119.68253968253961
    ]
  }
}